<svg viewBox="0 0 14 15" xmlns="http://www.w3.org/2000/svg">
  <g id="icon-instagram" >
    <path fill="currentColor"
          d="M8.473 8.973c.447-.446.67-.985.67-1.616 0-.63-.223-1.17-.67-1.616a2.202 2.202 0 00-1.616-.67c-.63 0-1.17.224-1.616.67-.446.447-.67.985-.67 1.616 0 .631.224 1.17.67 1.616.447.447.985.67 1.616.67.631 0 1.17-.223 1.616-.67zm.875-4.107c.685.685 1.027 1.515 1.027 2.491 0 .976-.342 1.807-1.027 2.491-.684.685-1.515 1.027-2.49 1.027-.977 0-1.807-.342-2.492-1.027-.684-.684-1.027-1.515-1.027-2.49 0-.977.343-1.807 1.027-2.492.685-.684 1.515-1.027 2.491-1.027.976 0 1.807.343 2.491 1.027zm1.75-1.75c.16.16.241.354.241.58 0 .227-.08.42-.24.58a.791.791 0 01-.581.242.791.791 0 01-.58-.241.791.791 0 01-.242-.58c0-.227.08-.42.242-.58a.791.791 0 01.58-.242c.226 0 .42.08.58.241zM7.536 1.732h-.679l-.683-.004a48.437 48.437 0 00-.942 0c-.214.003-.501.012-.861.026-.36.015-.667.045-.92.09a3.58 3.58 0 00-.639.165c-.297.119-.559.292-.785.518a2.316 2.316 0 00-.518.786 3.58 3.58 0 00-.165.638c-.045.253-.075.56-.09.92-.014.36-.023.647-.026.861-.003.214-.003.528 0 .942l.004.683-.004.683c-.003.414-.003.728 0 .942.003.214.012.502.026.862.015.36.045.666.09.92.044.252.1.465.165.638.119.297.292.56.518.786.226.226.488.398.785.517.173.066.386.12.639.166.253.044.56.074.92.089s.647.024.861.027c.214.003.528.003.942 0l.683-.005.683.005c.414.003.728.003.942 0 .214-.003.502-.012.862-.027s.666-.045.92-.09c.252-.044.465-.1.638-.165.297-.119.56-.291.786-.518.226-.226.398-.488.517-.785a3.58 3.58 0 00.166-.639c.044-.253.074-.56.089-.92s.024-.647.027-.86c.003-.215.003-.53 0-.943l-.005-.683.005-.683c.003-.414.003-.728 0-.942a33.077 33.077 0 00-.027-.861 7.076 7.076 0 00-.09-.92 3.58 3.58 0 00-.165-.639 2.316 2.316 0 00-.518-.785 2.316 2.316 0 00-.785-.518 3.58 3.58 0 00-.639-.165 7.076 7.076 0 00-.92-.09c-.36-.014-.647-.023-.86-.026-.215-.003-.53-.002-.947.004zm6.134 2.795c.03.524.044 1.467.044 2.83s-.015 2.307-.044 2.83c-.06 1.239-.429 2.197-1.107 2.876-.68.678-1.637 1.047-2.876 1.107-.523.03-1.467.044-2.83.044s-2.306-.015-2.83-.044c-1.238-.06-2.197-.429-2.875-1.107-.679-.68-1.048-1.637-1.107-2.876C.015 9.665 0 8.72 0 7.357s.015-2.306.045-2.83c.06-1.238.428-2.197 1.107-2.875C1.83.973 2.789.604 4.027.545 4.55.515 5.494.5 6.857.5s2.307.015 2.83.045c1.239.06 2.197.428 2.876 1.107.678.678 1.047 1.637 1.107 2.875z" />
  </g>
</svg>
